{
  $schema: "https://docs.renovatebot.com/renovate-schema.json",
  "extends": [
    "config:base",
    "docker:pinDigests",
    "group:allNonMajor",
  ],
  "dependencyDashboard": true,
  "rangeStrategy": "bump",
  "packageRules": [
    {
      "matchDatasources": ["docker"],
      "matchPackageNames": ["node"],
      "versioning": "node",
    }
  ],
}
